{
   "name":"sctestprojr2",
   "projectDescription":"desc",
   "owner":{
      "uid":"gagandeep.chhabra"
   },
   "developers":[
      "gagandeep.chhabra"
   ],
   "bigdata_environments":[
      "DEV"
   ],
   "persistent_volume_size":2,
   "components":[
      {
         "type":"job",
         "flavor":"pyspark",
         "name":"string_indexer",
         "description": "desc"
      },
      {
         "type":"job",
         "flavor":"pyspark",
         "name":"one_hot_encoder",
         "description": "json"
      },
      {
         "type":"job",
         "flavor":"pyspark",
         "name":"vector_assembler",
         "description": "desc"
      },
      {
         "type":"job",
         "flavor":"pyspark",
         "name":"model_evaluation",
         "description": "desc"
      }
   ],
   "pipelines":[
      {
         "name":"feature_engg_and_classifier_pipeline",
         "components":[
            "string_indexer",
            "one_hot_encoder",
            "vector_assembler"
         ],
         "description": "desc"
      }
   ]
}