{
   "run_name":"ps_pipe_fix1_1a",
   "project_name":"ps_pipe_fix1",
   "pipeline_name":"feature_engg_and_classifier_pipeline",
   "pipeline_version":1,
    "target_environment": "DEV",

   "run_parameters":{
      "driver_memory":"512m",
      "executor_memory":"512m",
      "executor_cores":"1",
      "num_executors":1,

      "model_param_numTrees":"7",
      "model_param_maxDepth":"7"
   }
}
