{
   "run_name":"bd_test_202_2_6a",
   "project_name":"bd_test_202_2",
   "pipeline_name":"feature_engg_and_classifier_pipeline",
   "pipeline_version":6,

   "run_parameters":{
      "driver_memory":"512m",
      "executor_memory":"512m",
      "executor_cores":1,
      "num_executors":1,

      "model_param_numTrees":"5",
      "model_param_maxDepth":"5"
   }
}