{
    "name": "bd_test3_203_2362",
    "components":[
      {
         "type":"pipeline_job",
         "flavor":"python",
         "name":"pj2",
         "description": "pj2"
      },
      {
         "type":"job",
         "flavor":"python",
         "name":"job2",
         "description": "job2"
      }        
    ],
    "pipelines":[{
         "name":"kfpipe2",
         "components":[
            "job1",
            "pj1"
         ],
        "after_dependencies": {"pj1": ["job1"]},
         "description": "some desc"
      },
{
         "name":"bdpl3",
         "components":[
            "string_indexer",
             "one_hot_encoder"
         ],
         "description": "some desc"
      }
   ]    
}